{
  "arch": "x86_64",
  "auth": null,
  "build": "py36_0",
  "build_number": 0,
  "channel": "https://repo.continuum.io/pkgs/main/osx-64",
  "depends": [
    "python >=3.6,<3.7.0a0"
  ],
  "files": [
    "lib/python3.6/site-packages/certifi-2018.04.16-py3.6.egg-info",
    "lib/python3.6/site-packages/certifi/__init__.py",
    "lib/python3.6/site-packages/certifi/__main__.py",
    "lib/python3.6/site-packages/certifi/__pycache__/__init__.cpython-36.pyc",
    "lib/python3.6/site-packages/certifi/__pycache__/__main__.cpython-36.pyc",
    "lib/python3.6/site-packages/certifi/__pycache__/core.cpython-36.pyc",
    "lib/python3.6/site-packages/certifi/cacert.pem",
    "lib/python3.6/site-packages/certifi/core.py"
  ],
  "fn": "certifi-2018.4.16-py36_0.tar.bz2",
  "license": "ISC",
  "link": {
    "source": "/anaconda/pkgs/certifi-2018.4.16-py36_0",
    "type": 1
  },
  "md5": "7634ca791203287a7df70e6d331c6429",
  "name": "certifi",
  "noarch": null,
  "platform": "darwin",
  "preferred_env": null,
  "priority": 0,
  "schannel": "defaults",
  "size": 145607,
  "subdir": "osx-64",
  "timestamp": 1524178075048,
  "url": "https://repo.continuum.io/pkgs/main/osx-64/certifi-2018.4.16-py36_0.tar.bz2",
  "version": "2018.4.16",
  "with_features_depends": {}
}