{
  "arch": "x86_64",
  "auth": null,
  "build": "py36_0",
  "build_number": 0,
  "channel": "https://repo.continuum.io/pkgs/main/osx-64",
  "depends": [
    "python >=3.6,<3.7.0a0"
  ],
  "files": [
    "lib/python3.6/site-packages/pytz-2018.4-py3.6.egg-info/PKG-INFO",
    "lib/python3.6/site-packages/pytz-2018.4-py3.6.egg-info/SOURCES.txt",
    "lib/python3.6/site-packages/pytz-2018.4-py3.6.egg-info/dependency_links.txt",
    "lib/python3.6/site-packages/pytz-2018.4-py3.6.egg-info/installed-files.txt",
    "lib/python3.6/site-packages/pytz-2018.4-py3.6.egg-info/top_level.txt",
    "lib/python3.6/site-packages/pytz-2018.4-py3.6.egg-info/zip-safe",
    "lib/python3.6/site-packages/pytz/__init__.py",
    "lib/python3.6/site-packages/pytz/__pycache__/__init__.cpython-36.pyc",
    "lib/python3.6/site-packages/pytz/__pycache__/exceptions.cpython-36.pyc",
    "lib/python3.6/site-packages/pytz/__pycache__/lazy.cpython-36.pyc",
    "lib/python3.6/site-packages/pytz/__pycache__/reference.cpython-36.pyc",
    "lib/python3.6/site-packages/pytz/__pycache__/tzfile.cpython-36.pyc",
    "lib/python3.6/site-packages/pytz/__pycache__/tzinfo.cpython-36.pyc",
    "lib/python3.6/site-packages/pytz/exceptions.py",
    "lib/python3.6/site-packages/pytz/lazy.py",
    "lib/python3.6/site-packages/pytz/reference.py",
    "lib/python3.6/site-packages/pytz/tzfile.py",
    "lib/python3.6/site-packages/pytz/tzinfo.py",
    "lib/python3.6/site-packages/pytz/zoneinfo/Africa/Abidjan",
    "lib/python3.6/site-packages/pytz/zoneinfo/Africa/Accra",
    "lib/python3.6/site-packages/pytz/zoneinfo/Africa/Addis_Ababa",
    "lib/python3.6/site-packages/pytz/zoneinfo/Africa/Algiers",
    "lib/python3.6/site-packages/pytz/zoneinfo/Africa/Asmara",
    "lib/python3.6/site-packages/pytz/zoneinfo/Africa/Asmera",
    "lib/python3.6/site-packages/pytz/zoneinfo/Africa/Bamako",
    "lib/python3.6/site-packages/pytz/zoneinfo/Africa/Bangui",
    "lib/python3.6/site-packages/pytz/zoneinfo/Africa/Banjul",
    "lib/python3.6/site-packages/pytz/zoneinfo/Africa/Bissau",
    "lib/python3.6/site-packages/pytz/zoneinfo/Africa/Blantyre",
    "lib/python3.6/site-packages/pytz/zoneinfo/Africa/Brazzaville",
    "lib/python3.6/site-packages/pytz/zoneinfo/Africa/Bujumbura",
    "lib/python3.6/site-packages/pytz/zoneinfo/Africa/Cairo",
    "lib/python3.6/site-packages/pytz/zoneinfo/Africa/Casablanca",
    "lib/python3.6/site-packages/pytz/zoneinfo/Africa/Ceuta",
    "lib/python3.6/site-packages/pytz/zoneinfo/Africa/Conakry",
    "lib/python3.6/site-packages/pytz/zoneinfo/Africa/Dakar",
    "lib/python3.6/site-packages/pytz/zoneinfo/Africa/Dar_es_Salaam",
    "lib/python3.6/site-packages/pytz/zoneinfo/Africa/Djibouti",
    "lib/python3.6/site-packages/pytz/zoneinfo/Africa/Douala",
    "lib/python3.6/site-packages/pytz/zoneinfo/Africa/El_Aaiun",
    "lib/python3.6/site-packages/pytz/zoneinfo/Africa/Freetown",
    "lib/python3.6/site-packages/pytz/zoneinfo/Africa/Gaborone",
    "lib/python3.6/site-packages/pytz/zoneinfo/Africa/Harare",
    "lib/python3.6/site-packages/pytz/zoneinfo/Africa/Johannesburg",
    "lib/python3.6/site-packages/pytz/zoneinfo/Africa/Juba",
    "lib/python3.6/site-packages/pytz/zoneinfo/Africa/Kampala",
    "lib/python3.6/site-packages/pytz/zoneinfo/Africa/Khartoum",
    "lib/python3.6/site-packages/pytz/zoneinfo/Africa/Kigali",
    "lib/python3.6/site-packages/pytz/zoneinfo/Africa/Kinshasa",
    "lib/python3.6/site-packages/pytz/zoneinfo/Africa/Lagos",
    "lib/python3.6/site-packages/pytz/zoneinfo/Africa/Libreville",
    "lib/python3.6/site-packages/pytz/zoneinfo/Africa/Lome",
    "lib/python3.6/site-packages/pytz/zoneinfo/Africa/Luanda",
    "lib/python3.6/site-packages/pytz/zoneinfo/Africa/Lubumbashi",
    "lib/python3.6/site-packages/pytz/zoneinfo/Africa/Lusaka",
    "lib/python3.6/site-packages/pytz/zoneinfo/Africa/Malabo",
    "lib/python3.6/site-packages/pytz/zoneinfo/Africa/Maputo",
    "lib/python3.6/site-packages/pytz/zoneinfo/Africa/Maseru",
    "lib/python3.6/site-packages/pytz/zoneinfo/Africa/Mbabane",
    "lib/python3.6/site-packages/pytz/zoneinfo/Africa/Mogadishu",
    "lib/python3.6/site-packages/pytz/zoneinfo/Africa/Monrovia",
    "lib/python3.6/site-packages/pytz/zoneinfo/Africa/Nairobi",
    "lib/python3.6/site-packages/pytz/zoneinfo/Africa/Ndjamena",
    "lib/python3.6/site-packages/pytz/zoneinfo/Africa/Niamey",
    "lib/python3.6/site-packages/pytz/zoneinfo/Africa/Nouakchott",
    "lib/python3.6/site-packages/pytz/zoneinfo/Africa/Ouagadougou",
    "lib/python3.6/site-packages/pytz/zoneinfo/Africa/Porto-Novo",
    "lib/python3.6/site-packages/pytz/zoneinfo/Africa/Sao_Tome",
    "lib/python3.6/site-packages/pytz/zoneinfo/Africa/Timbuktu",
    "lib/python3.6/site-packages/pytz/zoneinfo/Africa/Tripoli",
    "lib/python3.6/site-packages/pytz/zoneinfo/Africa/Tunis",
    "lib/python3.6/site-packages/pytz/zoneinfo/Africa/Windhoek",
    "lib/python3.6/site-packages/pytz/zoneinfo/America/Adak",
    "lib/python3.6/site-packages/pytz/zoneinfo/America/Anchorage",
    "lib/python3.6/site-packages/pytz/zoneinfo/America/Anguilla",
    "lib/python3.6/site-packages/pytz/zoneinfo/America/Antigua",
    "lib/python3.6/site-packages/pytz/zoneinfo/America/Araguaina",
    "lib/python3.6/site-packages/pytz/zoneinfo/America/Argentina/Buenos_Aires",
    "lib/python3.6/site-packages/pytz/zoneinfo/America/Argentina/Catamarca",
    "lib/python3.6/site-packages/pytz/zoneinfo/America/Argentina/ComodRivadavia",
    "lib/python3.6/site-packages/pytz/zoneinfo/America/Argentina/Cordoba",
    "lib/python3.6/site-packages/pytz/zoneinfo/America/Argentina/Jujuy",
    "lib/python3.6/site-packages/pytz/zoneinfo/America/Argentina/La_Rioja",
    "lib/python3.6/site-packages/pytz/zoneinfo/America/Argentina/Mendoza",
    "lib/python3.6/site-packages/pytz/zoneinfo/America/Argentina/Rio_Gallegos",
    "lib/python3.6/site-packages/pytz/zoneinfo/America/Argentina/Salta",
    "lib/python3.6/site-packages/pytz/zoneinfo/America/Argentina/San_Juan",
    "lib/python3.6/site-packages/pytz/zoneinfo/America/Argentina/San_Luis",
    "lib/python3.6/site-packages/pytz/zoneinfo/America/Argentina/Tucuman",
    "lib/python3.6/site-packages/pytz/zoneinfo/America/Argentina/Ushuaia",
    "lib/python3.6/site-packages/pytz/zoneinfo/America/Aruba",
    "lib/python3.6/site-packages/pytz/zoneinfo/America/Asuncion",
    "lib/python3.6/site-packages/pytz/zoneinfo/America/Atikokan",
    "lib/python3.6/site-packages/pytz/zoneinfo/America/Atka",
    "lib/python3.6/site-packages/pytz/zoneinfo/America/Bahia",
    "lib/python3.6/site-packages/pytz/zoneinfo/America/Bahia_Banderas",
    "lib/python3.6/site-packages/pytz/zoneinfo/America/Barbados",
    "lib/python3.6/site-packages/pytz/zoneinfo/America/Belem",
    "lib/python3.6/site-packages/pytz/zoneinfo/America/Belize",
    "lib/python3.6/site-packages/pytz/zoneinfo/America/Blanc-Sablon",
    "lib/python3.6/site-packages/pytz/zoneinfo/America/Boa_Vista",
    "lib/python3.6/site-packages/pytz/zoneinfo/America/Bogota",
    "lib/python3.6/site-packages/pytz/zoneinfo/America/Boise",
    "lib/python3.6/site-packages/pytz/zoneinfo/America/Buenos_Aires",
    "lib/python3.6/site-packages/pytz/zoneinfo/America/Cambridge_Bay",
    "lib/python3.6/site-packages/pytz/zoneinfo/America/Campo_Grande",
    "lib/python3.6/site-packages/pytz/zoneinfo/America/Cancun",
    "lib/python3.6/site-packages/pytz/zoneinfo/America/Caracas",
    "lib/python3.6/site-packages/pytz/zoneinfo/America/Catamarca",
    "lib/python3.6/site-packages/pytz/zoneinfo/America/Cayenne",
    "lib/python3.6/site-packages/pytz/zoneinfo/America/Cayman",
    "lib/python3.6/site-packages/pytz/zoneinfo/America/Chicago",
    "lib/python3.6/site-packages/pytz/zoneinfo/America/Chihuahua",
    "lib/python3.6/site-packages/pytz/zoneinfo/America/Coral_Harbour",
    "lib/python3.6/site-packages/pytz/zoneinfo/America/Cordoba",
    "lib/python3.6/site-packages/pytz/zoneinfo/America/Costa_Rica",
    "lib/python3.6/site-packages/pytz/zoneinfo/America/Creston",
    "lib/python3.6/site-packages/pytz/zoneinfo/America/Cuiaba",
    "lib/python3.6/site-packages/pytz/zoneinfo/America/Curacao",
    "lib/python3.6/site-packages/pytz/zoneinfo/America/Danmarkshavn",
    "lib/python3.6/site-packages/pytz/zoneinfo/America/Dawson",
    "lib/python3.6/site-packages/pytz/zoneinfo/America/Dawson_Creek",
    "lib/python3.6/site-packages/pytz/zoneinfo/America/Denver",
    "lib/python3.6/site-packages/pytz/zoneinfo/America/Detroit",
    "lib/python3.6/site-packages/pytz/zoneinfo/America/Dominica",
    "lib/python3.6/site-packages/pytz/zoneinfo/America/Edmonton",
    "lib/python3.6/site-packages/pytz/zoneinfo/America/Eirunepe",
    "lib/python3.6/site-packages/pytz/zoneinfo/America/El_Salvador",
    "lib/python3.6/site-packages/pytz/zoneinfo/America/Ensenada",
    "lib/python3.6/site-packages/pytz/zoneinfo/America/Fort_Nelson",
    "lib/python3.6/site-packages/pytz/zoneinfo/America/Fort_Wayne",
    "lib/python3.6/site-packages/pytz/zoneinfo/America/Fortaleza",
    "lib/python3.6/site-packages/pytz/zoneinfo/America/Glace_Bay",
    "lib/python3.6/site-packages/pytz/zoneinfo/America/Godthab",
    "lib/python3.6/site-packages/pytz/zoneinfo/America/Goose_Bay",
    "lib/python3.6/site-packages/pytz/zoneinfo/America/Grand_Turk",
    "lib/python3.6/site-packages/pytz/zoneinfo/America/Grenada",
    "lib/python3.6/site-packages/pytz/zoneinfo/America/Guadeloupe",
    "lib/python3.6/site-packages/pytz/zoneinfo/America/Guatemala",
    "lib/python3.6/site-packages/pytz/zoneinfo/America/Guayaquil",
    "lib/python3.6/site-packages/pytz/zoneinfo/America/Guyana",
    "lib/python3.6/site-packages/pytz/zoneinfo/America/Halifax",
    "lib/python3.6/site-packages/pytz/zoneinfo/America/Havana",
    "lib/python3.6/site-packages/pytz/zoneinfo/America/Hermosillo",
    "lib/python3.6/site-packages/pytz/zoneinfo/America/Indiana/Indianapolis",
    "lib/python3.6/site-packages/pytz/zoneinfo/America/Indiana/Knox",
    "lib/python3.6/site-packages/pytz/zoneinfo/America/Indiana/Marengo",
    "lib/python3.6/site-packages/pytz/zoneinfo/America/Indiana/Petersburg",
    "lib/python3.6/site-packages/pytz/zoneinfo/America/Indiana/Tell_City",
    "lib/python3.6/site-packages/pytz/zoneinfo/America/Indiana/Vevay",
    "lib/python3.6/site-packages/pytz/zoneinfo/America/Indiana/Vincennes",
    "lib/python3.6/site-packages/pytz/zoneinfo/America/Indiana/Winamac",
    "lib/python3.6/site-packages/pytz/zoneinfo/America/Indianapolis",
    "lib/python3.6/site-packages/pytz/zoneinfo/America/Inuvik",
    "lib/python3.6/site-packages/pytz/zoneinfo/America/Iqaluit",
    "lib/python3.6/site-packages/pytz/zoneinfo/America/Jamaica",
    "lib/python3.6/site-packages/pytz/zoneinfo/America/Jujuy",
    "lib/python3.6/site-packages/pytz/zoneinfo/America/Juneau",
    "lib/python3.6/site-packages/pytz/zoneinfo/America/Kentucky/Louisville",
    "lib/python3.6/site-packages/pytz/zoneinfo/America/Kentucky/Monticello",
    "lib/python3.6/site-packages/pytz/zoneinfo/America/Knox_IN",
    "lib/python3.6/site-packages/pytz/zoneinfo/America/Kralendijk",
    "lib/python3.6/site-packages/pytz/zoneinfo/America/La_Paz",
    "lib/python3.6/site-packages/pytz/zoneinfo/America/Lima",
    "lib/python3.6/site-packages/pytz/zoneinfo/America/Los_Angeles",
    "lib/python3.6/site-packages/pytz/zoneinfo/America/Louisville",
    "lib/python3.6/site-packages/pytz/zoneinfo/America/Lower_Princes",
    "lib/python3.6/site-packages/pytz/zoneinfo/America/Maceio",
    "lib/python3.6/site-packages/pytz/zoneinfo/America/Managua",
    "lib/python3.6/site-packages/pytz/zoneinfo/America/Manaus",
    "lib/python3.6/site-packages/pytz/zoneinfo/America/Marigot",
    "lib/python3.6/site-packages/pytz/zoneinfo/America/Martinique",
    "lib/python3.6/site-packages/pytz/zoneinfo/America/Matamoros",
    "lib/python3.6/site-packages/pytz/zoneinfo/America/Mazatlan",
    "lib/python3.6/site-packages/pytz/zoneinfo/America/Mendoza",
    "lib/python3.6/site-packages/pytz/zoneinfo/America/Menominee",
    "lib/python3.6/site-packages/pytz/zoneinfo/America/Merida",
    "lib/python3.6/site-packages/pytz/zoneinfo/America/Metlakatla",
    "lib/python3.6/site-packages/pytz/zoneinfo/America/Mexico_City",
    "lib/python3.6/site-packages/pytz/zoneinfo/America/Miquelon",
    "lib/python3.6/site-packages/pytz/zoneinfo/America/Moncton",
    "lib/python3.6/site-packages/pytz/zoneinfo/America/Monterrey",
    "lib/python3.6/site-packages/pytz/zoneinfo/America/Montevideo",
    "lib/python3.6/site-packages/pytz/zoneinfo/America/Montreal",
    "lib/python3.6/site-packages/pytz/zoneinfo/America/Montserrat",
    "lib/python3.6/site-packages/pytz/zoneinfo/America/Nassau",
    "lib/python3.6/site-packages/pytz/zoneinfo/America/New_York",
    "lib/python3.6/site-packages/pytz/zoneinfo/America/Nipigon",
    "lib/python3.6/site-packages/pytz/zoneinfo/America/Nome",
    "lib/python3.6/site-packages/pytz/zoneinfo/America/Noronha",
    "lib/python3.6/site-packages/pytz/zoneinfo/America/North_Dakota/Beulah",
    "lib/python3.6/site-packages/pytz/zoneinfo/America/North_Dakota/Center",
    "lib/python3.6/site-packages/pytz/zoneinfo/America/North_Dakota/New_Salem",
    "lib/python3.6/site-packages/pytz/zoneinfo/America/Ojinaga",
    "lib/python3.6/site-packages/pytz/zoneinfo/America/Panama",
    "lib/python3.6/site-packages/pytz/zoneinfo/America/Pangnirtung",
    "lib/python3.6/site-packages/pytz/zoneinfo/America/Paramaribo",
    "lib/python3.6/site-packages/pytz/zoneinfo/America/Phoenix",
    "lib/python3.6/site-packages/pytz/zoneinfo/America/Port-au-Prince",
    "lib/python3.6/site-packages/pytz/zoneinfo/America/Port_of_Spain",
    "lib/python3.6/site-packages/pytz/zoneinfo/America/Porto_Acre",
    "lib/python3.6/site-packages/pytz/zoneinfo/America/Porto_Velho",
    "lib/python3.6/site-packages/pytz/zoneinfo/America/Puerto_Rico",
    "lib/python3.6/site-packages/pytz/zoneinfo/America/Punta_Arenas",
    "lib/python3.6/site-packages/pytz/zoneinfo/America/Rainy_River",
    "lib/python3.6/site-packages/pytz/zoneinfo/America/Rankin_Inlet",
    "lib/python3.6/site-packages/pytz/zoneinfo/America/Recife",
    "lib/python3.6/site-packages/pytz/zoneinfo/America/Regina",
    "lib/python3.6/site-packages/pytz/zoneinfo/America/Resolute",
    "lib/python3.6/site-packages/pytz/zoneinfo/America/Rio_Branco",
    "lib/python3.6/site-packages/pytz/zoneinfo/America/Rosario",
    "lib/python3.6/site-packages/pytz/zoneinfo/America/Santa_Isabel",
    "lib/python3.6/site-packages/pytz/zoneinfo/America/Santarem",
    "lib/python3.6/site-packages/pytz/zoneinfo/America/Santiago",
    "lib/python3.6/site-packages/pytz/zoneinfo/America/Santo_Domingo",
    "lib/python3.6/site-packages/pytz/zoneinfo/America/Sao_Paulo",
    "lib/python3.6/site-packages/pytz/zoneinfo/America/Scoresbysund",
    "lib/python3.6/site-packages/pytz/zoneinfo/America/Shiprock",
    "lib/python3.6/site-packages/pytz/zoneinfo/America/Sitka",
    "lib/python3.6/site-packages/pytz/zoneinfo/America/St_Barthelemy",
    "lib/python3.6/site-packages/pytz/zoneinfo/America/St_Johns",
    "lib/python3.6/site-packages/pytz/zoneinfo/America/St_Kitts",
    "lib/python3.6/site-packages/pytz/zoneinfo/America/St_Lucia",
    "lib/python3.6/site-packages/pytz/zoneinfo/America/St_Thomas",
    "lib/python3.6/site-packages/pytz/zoneinfo/America/St_Vincent",
    "lib/python3.6/site-packages/pytz/zoneinfo/America/Swift_Current",
    "lib/python3.6/site-packages/pytz/zoneinfo/America/Tegucigalpa",
    "lib/python3.6/site-packages/pytz/zoneinfo/America/Thule",
    "lib/python3.6/site-packages/pytz/zoneinfo/America/Thunder_Bay",
    "lib/python3.6/site-packages/pytz/zoneinfo/America/Tijuana",
    "lib/python3.6/site-packages/pytz/zoneinfo/America/Toronto",
    "lib/python3.6/site-packages/pytz/zoneinfo/America/Tortola",
    "lib/python3.6/site-packages/pytz/zoneinfo/America/Vancouver",
    "lib/python3.6/site-packages/pytz/zoneinfo/America/Virgin",
    "lib/python3.6/site-packages/pytz/zoneinfo/America/Whitehorse",
    "lib/python3.6/site-packages/pytz/zoneinfo/America/Winnipeg",
    "lib/python3.6/site-packages/pytz/zoneinfo/America/Yakutat",
    "lib/python3.6/site-packages/pytz/zoneinfo/America/Yellowknife",
    "lib/python3.6/site-packages/pytz/zoneinfo/Antarctica/Casey",
    "lib/python3.6/site-packages/pytz/zoneinfo/Antarctica/Davis",
    "lib/python3.6/site-packages/pytz/zoneinfo/Antarctica/DumontDUrville",
    "lib/python3.6/site-packages/pytz/zoneinfo/Antarctica/Macquarie",
    "lib/python3.6/site-packages/pytz/zoneinfo/Antarctica/Mawson",
    "lib/python3.6/site-packages/pytz/zoneinfo/Antarctica/McMurdo",
    "lib/python3.6/site-packages/pytz/zoneinfo/Antarctica/Palmer",
    "lib/python3.6/site-packages/pytz/zoneinfo/Antarctica/Rothera",
    "lib/python3.6/site-packages/pytz/zoneinfo/Antarctica/South_Pole",
    "lib/python3.6/site-packages/pytz/zoneinfo/Antarctica/Syowa",
    "lib/python3.6/site-packages/pytz/zoneinfo/Antarctica/Troll",
    "lib/python3.6/site-packages/pytz/zoneinfo/Antarctica/Vostok",
    "lib/python3.6/site-packages/pytz/zoneinfo/Arctic/Longyearbyen",
    "lib/python3.6/site-packages/pytz/zoneinfo/Asia/Aden",
    "lib/python3.6/site-packages/pytz/zoneinfo/Asia/Almaty",
    "lib/python3.6/site-packages/pytz/zoneinfo/Asia/Amman",
    "lib/python3.6/site-packages/pytz/zoneinfo/Asia/Anadyr",
    "lib/python3.6/site-packages/pytz/zoneinfo/Asia/Aqtau",
    "lib/python3.6/site-packages/pytz/zoneinfo/Asia/Aqtobe",
    "lib/python3.6/site-packages/pytz/zoneinfo/Asia/Ashgabat",
    "lib/python3.6/site-packages/pytz/zoneinfo/Asia/Ashkhabad",
    "lib/python3.6/site-packages/pytz/zoneinfo/Asia/Atyrau",
    "lib/python3.6/site-packages/pytz/zoneinfo/Asia/Baghdad",
    "lib/python3.6/site-packages/pytz/zoneinfo/Asia/Bahrain",
    "lib/python3.6/site-packages/pytz/zoneinfo/Asia/Baku",
    "lib/python3.6/site-packages/pytz/zoneinfo/Asia/Bangkok",
    "lib/python3.6/site-packages/pytz/zoneinfo/Asia/Barnaul",
    "lib/python3.6/site-packages/pytz/zoneinfo/Asia/Beirut",
    "lib/python3.6/site-packages/pytz/zoneinfo/Asia/Bishkek",
    "lib/python3.6/site-packages/pytz/zoneinfo/Asia/Brunei",
    "lib/python3.6/site-packages/pytz/zoneinfo/Asia/Calcutta",
    "lib/python3.6/site-packages/pytz/zoneinfo/Asia/Chita",
    "lib/python3.6/site-packages/pytz/zoneinfo/Asia/Choibalsan",
    "lib/python3.6/site-packages/pytz/zoneinfo/Asia/Chongqing",
    "lib/python3.6/site-packages/pytz/zoneinfo/Asia/Chungking",
    "lib/python3.6/site-packages/pytz/zoneinfo/Asia/Colombo",
    "lib/python3.6/site-packages/pytz/zoneinfo/Asia/Dacca",
    "lib/python3.6/site-packages/pytz/zoneinfo/Asia/Damascus",
    "lib/python3.6/site-packages/pytz/zoneinfo/Asia/Dhaka",
    "lib/python3.6/site-packages/pytz/zoneinfo/Asia/Dili",
    "lib/python3.6/site-packages/pytz/zoneinfo/Asia/Dubai",
    "lib/python3.6/site-packages/pytz/zoneinfo/Asia/Dushanbe",
    "lib/python3.6/site-packages/pytz/zoneinfo/Asia/Famagusta",
    "lib/python3.6/site-packages/pytz/zoneinfo/Asia/Gaza",
    "lib/python3.6/site-packages/pytz/zoneinfo/Asia/Harbin",
    "lib/python3.6/site-packages/pytz/zoneinfo/Asia/Hebron",
    "lib/python3.6/site-packages/pytz/zoneinfo/Asia/Ho_Chi_Minh",
    "lib/python3.6/site-packages/pytz/zoneinfo/Asia/Hong_Kong",
    "lib/python3.6/site-packages/pytz/zoneinfo/Asia/Hovd",
    "lib/python3.6/site-packages/pytz/zoneinfo/Asia/Irkutsk",
    "lib/python3.6/site-packages/pytz/zoneinfo/Asia/Istanbul",
    "lib/python3.6/site-packages/pytz/zoneinfo/Asia/Jakarta",
    "lib/python3.6/site-packages/pytz/zoneinfo/Asia/Jayapura",
    "lib/python3.6/site-packages/pytz/zoneinfo/Asia/Jerusalem",
    "lib/python3.6/site-packages/pytz/zoneinfo/Asia/Kabul",
    "lib/python3.6/site-packages/pytz/zoneinfo/Asia/Kamchatka",
    "lib/python3.6/site-packages/pytz/zoneinfo/Asia/Karachi",
    "lib/python3.6/site-packages/pytz/zoneinfo/Asia/Kashgar",
    "lib/python3.6/site-packages/pytz/zoneinfo/Asia/Kathmandu",
    "lib/python3.6/site-packages/pytz/zoneinfo/Asia/Katmandu",
    "lib/python3.6/site-packages/pytz/zoneinfo/Asia/Khandyga",
    "lib/python3.6/site-packages/pytz/zoneinfo/Asia/Kolkata",
    "lib/python3.6/site-packages/pytz/zoneinfo/Asia/Krasnoyarsk",
    "lib/python3.6/site-packages/pytz/zoneinfo/Asia/Kuala_Lumpur",
    "lib/python3.6/site-packages/pytz/zoneinfo/Asia/Kuching",
    "lib/python3.6/site-packages/pytz/zoneinfo/Asia/Kuwait",
    "lib/python3.6/site-packages/pytz/zoneinfo/Asia/Macao",
    "lib/python3.6/site-packages/pytz/zoneinfo/Asia/Macau",
    "lib/python3.6/site-packages/pytz/zoneinfo/Asia/Magadan",
    "lib/python3.6/site-packages/pytz/zoneinfo/Asia/Makassar",
    "lib/python3.6/site-packages/pytz/zoneinfo/Asia/Manila",
    "lib/python3.6/site-packages/pytz/zoneinfo/Asia/Muscat",
    "lib/python3.6/site-packages/pytz/zoneinfo/Asia/Nicosia",
    "lib/python3.6/site-packages/pytz/zoneinfo/Asia/Novokuznetsk",
    "lib/python3.6/site-packages/pytz/zoneinfo/Asia/Novosibirsk",
    "lib/python3.6/site-packages/pytz/zoneinfo/Asia/Omsk",
    "lib/python3.6/site-packages/pytz/zoneinfo/Asia/Oral",
    "lib/python3.6/site-packages/pytz/zoneinfo/Asia/Phnom_Penh",
    "lib/python3.6/site-packages/pytz/zoneinfo/Asia/Pontianak",
    "lib/python3.6/site-packages/pytz/zoneinfo/Asia/Pyongyang",
    "lib/python3.6/site-packages/pytz/zoneinfo/Asia/Qatar",
    "lib/python3.6/site-packages/pytz/zoneinfo/Asia/Qyzylorda",
    "lib/python3.6/site-packages/pytz/zoneinfo/Asia/Rangoon",
    "lib/python3.6/site-packages/pytz/zoneinfo/Asia/Riyadh",
    "lib/python3.6/site-packages/pytz/zoneinfo/Asia/Saigon",
    "lib/python3.6/site-packages/pytz/zoneinfo/Asia/Sakhalin",
    "lib/python3.6/site-packages/pytz/zoneinfo/Asia/Samarkand",
    "lib/python3.6/site-packages/pytz/zoneinfo/Asia/Seoul",
    "lib/python3.6/site-packages/pytz/zoneinfo/Asia/Shanghai",
    "lib/python3.6/site-packages/pytz/zoneinfo/Asia/Singapore",
    "lib/python3.6/site-packages/pytz/zoneinfo/Asia/Srednekolymsk",
    "lib/python3.6/site-packages/pytz/zoneinfo/Asia/Taipei",
    "lib/python3.6/site-packages/pytz/zoneinfo/Asia/Tashkent",
    "lib/python3.6/site-packages/pytz/zoneinfo/Asia/Tbilisi",
    "lib/python3.6/site-packages/pytz/zoneinfo/Asia/Tehran",
    "lib/python3.6/site-packages/pytz/zoneinfo/Asia/Tel_Aviv",
    "lib/python3.6/site-packages/pytz/zoneinfo/Asia/Thimbu",
    "lib/python3.6/site-packages/pytz/zoneinfo/Asia/Thimphu",
    "lib/python3.6/site-packages/pytz/zoneinfo/Asia/Tokyo",
    "lib/python3.6/site-packages/pytz/zoneinfo/Asia/Tomsk",
    "lib/python3.6/site-packages/pytz/zoneinfo/Asia/Ujung_Pandang",
    "lib/python3.6/site-packages/pytz/zoneinfo/Asia/Ulaanbaatar",
    "lib/python3.6/site-packages/pytz/zoneinfo/Asia/Ulan_Bator",
    "lib/python3.6/site-packages/pytz/zoneinfo/Asia/Urumqi",
    "lib/python3.6/site-packages/pytz/zoneinfo/Asia/Ust-Nera",
    "lib/python3.6/site-packages/pytz/zoneinfo/Asia/Vientiane",
    "lib/python3.6/site-packages/pytz/zoneinfo/Asia/Vladivostok",
    "lib/python3.6/site-packages/pytz/zoneinfo/Asia/Yakutsk",
    "lib/python3.6/site-packages/pytz/zoneinfo/Asia/Yangon",
    "lib/python3.6/site-packages/pytz/zoneinfo/Asia/Yekaterinburg",
    "lib/python3.6/site-packages/pytz/zoneinfo/Asia/Yerevan",
    "lib/python3.6/site-packages/pytz/zoneinfo/Atlantic/Azores",
    "lib/python3.6/site-packages/pytz/zoneinfo/Atlantic/Bermuda",
    "lib/python3.6/site-packages/pytz/zoneinfo/Atlantic/Canary",
    "lib/python3.6/site-packages/pytz/zoneinfo/Atlantic/Cape_Verde",
    "lib/python3.6/site-packages/pytz/zoneinfo/Atlantic/Faeroe",
    "lib/python3.6/site-packages/pytz/zoneinfo/Atlantic/Faroe",
    "lib/python3.6/site-packages/pytz/zoneinfo/Atlantic/Jan_Mayen",
    "lib/python3.6/site-packages/pytz/zoneinfo/Atlantic/Madeira",
    "lib/python3.6/site-packages/pytz/zoneinfo/Atlantic/Reykjavik",
    "lib/python3.6/site-packages/pytz/zoneinfo/Atlantic/South_Georgia",
    "lib/python3.6/site-packages/pytz/zoneinfo/Atlantic/St_Helena",
    "lib/python3.6/site-packages/pytz/zoneinfo/Atlantic/Stanley",
    "lib/python3.6/site-packages/pytz/zoneinfo/Australia/ACT",
    "lib/python3.6/site-packages/pytz/zoneinfo/Australia/Adelaide",
    "lib/python3.6/site-packages/pytz/zoneinfo/Australia/Brisbane",
    "lib/python3.6/site-packages/pytz/zoneinfo/Australia/Broken_Hill",
    "lib/python3.6/site-packages/pytz/zoneinfo/Australia/Canberra",
    "lib/python3.6/site-packages/pytz/zoneinfo/Australia/Currie",
    "lib/python3.6/site-packages/pytz/zoneinfo/Australia/Darwin",
    "lib/python3.6/site-packages/pytz/zoneinfo/Australia/Eucla",
    "lib/python3.6/site-packages/pytz/zoneinfo/Australia/Hobart",
    "lib/python3.6/site-packages/pytz/zoneinfo/Australia/LHI",
    "lib/python3.6/site-packages/pytz/zoneinfo/Australia/Lindeman",
    "lib/python3.6/site-packages/pytz/zoneinfo/Australia/Lord_Howe",
    "lib/python3.6/site-packages/pytz/zoneinfo/Australia/Melbourne",
    "lib/python3.6/site-packages/pytz/zoneinfo/Australia/NSW",
    "lib/python3.6/site-packages/pytz/zoneinfo/Australia/North",
    "lib/python3.6/site-packages/pytz/zoneinfo/Australia/Perth",
    "lib/python3.6/site-packages/pytz/zoneinfo/Australia/Queensland",
    "lib/python3.6/site-packages/pytz/zoneinfo/Australia/South",
    "lib/python3.6/site-packages/pytz/zoneinfo/Australia/Sydney",
    "lib/python3.6/site-packages/pytz/zoneinfo/Australia/Tasmania",
    "lib/python3.6/site-packages/pytz/zoneinfo/Australia/Victoria",
    "lib/python3.6/site-packages/pytz/zoneinfo/Australia/West",
    "lib/python3.6/site-packages/pytz/zoneinfo/Australia/Yancowinna",
    "lib/python3.6/site-packages/pytz/zoneinfo/Brazil/Acre",
    "lib/python3.6/site-packages/pytz/zoneinfo/Brazil/DeNoronha",
    "lib/python3.6/site-packages/pytz/zoneinfo/Brazil/East",
    "lib/python3.6/site-packages/pytz/zoneinfo/Brazil/West",
    "lib/python3.6/site-packages/pytz/zoneinfo/CET",
    "lib/python3.6/site-packages/pytz/zoneinfo/CST6CDT",
    "lib/python3.6/site-packages/pytz/zoneinfo/Canada/Atlantic",
    "lib/python3.6/site-packages/pytz/zoneinfo/Canada/Central",
    "lib/python3.6/site-packages/pytz/zoneinfo/Canada/Eastern",
    "lib/python3.6/site-packages/pytz/zoneinfo/Canada/Mountain",
    "lib/python3.6/site-packages/pytz/zoneinfo/Canada/Newfoundland",
    "lib/python3.6/site-packages/pytz/zoneinfo/Canada/Pacific",
    "lib/python3.6/site-packages/pytz/zoneinfo/Canada/Saskatchewan",
    "lib/python3.6/site-packages/pytz/zoneinfo/Canada/Yukon",
    "lib/python3.6/site-packages/pytz/zoneinfo/Chile/Continental",
    "lib/python3.6/site-packages/pytz/zoneinfo/Chile/EasterIsland",
    "lib/python3.6/site-packages/pytz/zoneinfo/Cuba",
    "lib/python3.6/site-packages/pytz/zoneinfo/EET",
    "lib/python3.6/site-packages/pytz/zoneinfo/EST",
    "lib/python3.6/site-packages/pytz/zoneinfo/EST5EDT",
    "lib/python3.6/site-packages/pytz/zoneinfo/Egypt",
    "lib/python3.6/site-packages/pytz/zoneinfo/Eire",
    "lib/python3.6/site-packages/pytz/zoneinfo/Etc/GMT",
    "lib/python3.6/site-packages/pytz/zoneinfo/Etc/GMT+0",
    "lib/python3.6/site-packages/pytz/zoneinfo/Etc/GMT+1",
    "lib/python3.6/site-packages/pytz/zoneinfo/Etc/GMT+10",
    "lib/python3.6/site-packages/pytz/zoneinfo/Etc/GMT+11",
    "lib/python3.6/site-packages/pytz/zoneinfo/Etc/GMT+12",
    "lib/python3.6/site-packages/pytz/zoneinfo/Etc/GMT+2",
    "lib/python3.6/site-packages/pytz/zoneinfo/Etc/GMT+3",
    "lib/python3.6/site-packages/pytz/zoneinfo/Etc/GMT+4",
    "lib/python3.6/site-packages/pytz/zoneinfo/Etc/GMT+5",
    "lib/python3.6/site-packages/pytz/zoneinfo/Etc/GMT+6",
    "lib/python3.6/site-packages/pytz/zoneinfo/Etc/GMT+7",
    "lib/python3.6/site-packages/pytz/zoneinfo/Etc/GMT+8",
    "lib/python3.6/site-packages/pytz/zoneinfo/Etc/GMT+9",
    "lib/python3.6/site-packages/pytz/zoneinfo/Etc/GMT-0",
    "lib/python3.6/site-packages/pytz/zoneinfo/Etc/GMT-1",
    "lib/python3.6/site-packages/pytz/zoneinfo/Etc/GMT-10",
    "lib/python3.6/site-packages/pytz/zoneinfo/Etc/GMT-11",
    "lib/python3.6/site-packages/pytz/zoneinfo/Etc/GMT-12",
    "lib/python3.6/site-packages/pytz/zoneinfo/Etc/GMT-13",
    "lib/python3.6/site-packages/pytz/zoneinfo/Etc/GMT-14",
    "lib/python3.6/site-packages/pytz/zoneinfo/Etc/GMT-2",
    "lib/python3.6/site-packages/pytz/zoneinfo/Etc/GMT-3",
    "lib/python3.6/site-packages/pytz/zoneinfo/Etc/GMT-4",
    "lib/python3.6/site-packages/pytz/zoneinfo/Etc/GMT-5",
    "lib/python3.6/site-packages/pytz/zoneinfo/Etc/GMT-6",
    "lib/python3.6/site-packages/pytz/zoneinfo/Etc/GMT-7",
    "lib/python3.6/site-packages/pytz/zoneinfo/Etc/GMT-8",
    "lib/python3.6/site-packages/pytz/zoneinfo/Etc/GMT-9",
    "lib/python3.6/site-packages/pytz/zoneinfo/Etc/GMT0",
    "lib/python3.6/site-packages/pytz/zoneinfo/Etc/Greenwich",
    "lib/python3.6/site-packages/pytz/zoneinfo/Etc/UCT",
    "lib/python3.6/site-packages/pytz/zoneinfo/Etc/UTC",
    "lib/python3.6/site-packages/pytz/zoneinfo/Etc/Universal",
    "lib/python3.6/site-packages/pytz/zoneinfo/Etc/Zulu",
    "lib/python3.6/site-packages/pytz/zoneinfo/Europe/Amsterdam",
    "lib/python3.6/site-packages/pytz/zoneinfo/Europe/Andorra",
    "lib/python3.6/site-packages/pytz/zoneinfo/Europe/Astrakhan",
    "lib/python3.6/site-packages/pytz/zoneinfo/Europe/Athens",
    "lib/python3.6/site-packages/pytz/zoneinfo/Europe/Belfast",
    "lib/python3.6/site-packages/pytz/zoneinfo/Europe/Belgrade",
    "lib/python3.6/site-packages/pytz/zoneinfo/Europe/Berlin",
    "lib/python3.6/site-packages/pytz/zoneinfo/Europe/Bratislava",
    "lib/python3.6/site-packages/pytz/zoneinfo/Europe/Brussels",
    "lib/python3.6/site-packages/pytz/zoneinfo/Europe/Bucharest",
    "lib/python3.6/site-packages/pytz/zoneinfo/Europe/Budapest",
    "lib/python3.6/site-packages/pytz/zoneinfo/Europe/Busingen",
    "lib/python3.6/site-packages/pytz/zoneinfo/Europe/Chisinau",
    "lib/python3.6/site-packages/pytz/zoneinfo/Europe/Copenhagen",
    "lib/python3.6/site-packages/pytz/zoneinfo/Europe/Dublin",
    "lib/python3.6/site-packages/pytz/zoneinfo/Europe/Gibraltar",
    "lib/python3.6/site-packages/pytz/zoneinfo/Europe/Guernsey",
    "lib/python3.6/site-packages/pytz/zoneinfo/Europe/Helsinki",
    "lib/python3.6/site-packages/pytz/zoneinfo/Europe/Isle_of_Man",
    "lib/python3.6/site-packages/pytz/zoneinfo/Europe/Istanbul",
    "lib/python3.6/site-packages/pytz/zoneinfo/Europe/Jersey",
    "lib/python3.6/site-packages/pytz/zoneinfo/Europe/Kaliningrad",
    "lib/python3.6/site-packages/pytz/zoneinfo/Europe/Kiev",
    "lib/python3.6/site-packages/pytz/zoneinfo/Europe/Kirov",
    "lib/python3.6/site-packages/pytz/zoneinfo/Europe/Lisbon",
    "lib/python3.6/site-packages/pytz/zoneinfo/Europe/Ljubljana",
    "lib/python3.6/site-packages/pytz/zoneinfo/Europe/London",
    "lib/python3.6/site-packages/pytz/zoneinfo/Europe/Luxembourg",
    "lib/python3.6/site-packages/pytz/zoneinfo/Europe/Madrid",
    "lib/python3.6/site-packages/pytz/zoneinfo/Europe/Malta",
    "lib/python3.6/site-packages/pytz/zoneinfo/Europe/Mariehamn",
    "lib/python3.6/site-packages/pytz/zoneinfo/Europe/Minsk",
    "lib/python3.6/site-packages/pytz/zoneinfo/Europe/Monaco",
    "lib/python3.6/site-packages/pytz/zoneinfo/Europe/Moscow",
    "lib/python3.6/site-packages/pytz/zoneinfo/Europe/Nicosia",
    "lib/python3.6/site-packages/pytz/zoneinfo/Europe/Oslo",
    "lib/python3.6/site-packages/pytz/zoneinfo/Europe/Paris",
    "lib/python3.6/site-packages/pytz/zoneinfo/Europe/Podgorica",
    "lib/python3.6/site-packages/pytz/zoneinfo/Europe/Prague",
    "lib/python3.6/site-packages/pytz/zoneinfo/Europe/Riga",
    "lib/python3.6/site-packages/pytz/zoneinfo/Europe/Rome",
    "lib/python3.6/site-packages/pytz/zoneinfo/Europe/Samara",
    "lib/python3.6/site-packages/pytz/zoneinfo/Europe/San_Marino",
    "lib/python3.6/site-packages/pytz/zoneinfo/Europe/Sarajevo",
    "lib/python3.6/site-packages/pytz/zoneinfo/Europe/Saratov",
    "lib/python3.6/site-packages/pytz/zoneinfo/Europe/Simferopol",
    "lib/python3.6/site-packages/pytz/zoneinfo/Europe/Skopje",
    "lib/python3.6/site-packages/pytz/zoneinfo/Europe/Sofia",
    "lib/python3.6/site-packages/pytz/zoneinfo/Europe/Stockholm",
    "lib/python3.6/site-packages/pytz/zoneinfo/Europe/Tallinn",
    "lib/python3.6/site-packages/pytz/zoneinfo/Europe/Tirane",
    "lib/python3.6/site-packages/pytz/zoneinfo/Europe/Tiraspol",
    "lib/python3.6/site-packages/pytz/zoneinfo/Europe/Ulyanovsk",
    "lib/python3.6/site-packages/pytz/zoneinfo/Europe/Uzhgorod",
    "lib/python3.6/site-packages/pytz/zoneinfo/Europe/Vaduz",
    "lib/python3.6/site-packages/pytz/zoneinfo/Europe/Vatican",
    "lib/python3.6/site-packages/pytz/zoneinfo/Europe/Vienna",
    "lib/python3.6/site-packages/pytz/zoneinfo/Europe/Vilnius",
    "lib/python3.6/site-packages/pytz/zoneinfo/Europe/Volgograd",
    "lib/python3.6/site-packages/pytz/zoneinfo/Europe/Warsaw",
    "lib/python3.6/site-packages/pytz/zoneinfo/Europe/Zagreb",
    "lib/python3.6/site-packages/pytz/zoneinfo/Europe/Zaporozhye",
    "lib/python3.6/site-packages/pytz/zoneinfo/Europe/Zurich",
    "lib/python3.6/site-packages/pytz/zoneinfo/Factory",
    "lib/python3.6/site-packages/pytz/zoneinfo/GB",
    "lib/python3.6/site-packages/pytz/zoneinfo/GB-Eire",
    "lib/python3.6/site-packages/pytz/zoneinfo/GMT",
    "lib/python3.6/site-packages/pytz/zoneinfo/GMT+0",
    "lib/python3.6/site-packages/pytz/zoneinfo/GMT-0",
    "lib/python3.6/site-packages/pytz/zoneinfo/GMT0",
    "lib/python3.6/site-packages/pytz/zoneinfo/Greenwich",
    "lib/python3.6/site-packages/pytz/zoneinfo/HST",
    "lib/python3.6/site-packages/pytz/zoneinfo/Hongkong",
    "lib/python3.6/site-packages/pytz/zoneinfo/Iceland",
    "lib/python3.6/site-packages/pytz/zoneinfo/Indian/Antananarivo",
    "lib/python3.6/site-packages/pytz/zoneinfo/Indian/Chagos",
    "lib/python3.6/site-packages/pytz/zoneinfo/Indian/Christmas",
    "lib/python3.6/site-packages/pytz/zoneinfo/Indian/Cocos",
    "lib/python3.6/site-packages/pytz/zoneinfo/Indian/Comoro",
    "lib/python3.6/site-packages/pytz/zoneinfo/Indian/Kerguelen",
    "lib/python3.6/site-packages/pytz/zoneinfo/Indian/Mahe",
    "lib/python3.6/site-packages/pytz/zoneinfo/Indian/Maldives",
    "lib/python3.6/site-packages/pytz/zoneinfo/Indian/Mauritius",
    "lib/python3.6/site-packages/pytz/zoneinfo/Indian/Mayotte",
    "lib/python3.6/site-packages/pytz/zoneinfo/Indian/Reunion",
    "lib/python3.6/site-packages/pytz/zoneinfo/Iran",
    "lib/python3.6/site-packages/pytz/zoneinfo/Israel",
    "lib/python3.6/site-packages/pytz/zoneinfo/Jamaica",
    "lib/python3.6/site-packages/pytz/zoneinfo/Japan",
    "lib/python3.6/site-packages/pytz/zoneinfo/Kwajalein",
    "lib/python3.6/site-packages/pytz/zoneinfo/Libya",
    "lib/python3.6/site-packages/pytz/zoneinfo/MET",
    "lib/python3.6/site-packages/pytz/zoneinfo/MST",
    "lib/python3.6/site-packages/pytz/zoneinfo/MST7MDT",
    "lib/python3.6/site-packages/pytz/zoneinfo/Mexico/BajaNorte",
    "lib/python3.6/site-packages/pytz/zoneinfo/Mexico/BajaSur",
    "lib/python3.6/site-packages/pytz/zoneinfo/Mexico/General",
    "lib/python3.6/site-packages/pytz/zoneinfo/NZ",
    "lib/python3.6/site-packages/pytz/zoneinfo/NZ-CHAT",
    "lib/python3.6/site-packages/pytz/zoneinfo/Navajo",
    "lib/python3.6/site-packages/pytz/zoneinfo/PRC",
    "lib/python3.6/site-packages/pytz/zoneinfo/PST8PDT",
    "lib/python3.6/site-packages/pytz/zoneinfo/Pacific/Apia",
    "lib/python3.6/site-packages/pytz/zoneinfo/Pacific/Auckland",
    "lib/python3.6/site-packages/pytz/zoneinfo/Pacific/Bougainville",
    "lib/python3.6/site-packages/pytz/zoneinfo/Pacific/Chatham",
    "lib/python3.6/site-packages/pytz/zoneinfo/Pacific/Chuuk",
    "lib/python3.6/site-packages/pytz/zoneinfo/Pacific/Easter",
    "lib/python3.6/site-packages/pytz/zoneinfo/Pacific/Efate",
    "lib/python3.6/site-packages/pytz/zoneinfo/Pacific/Enderbury",
    "lib/python3.6/site-packages/pytz/zoneinfo/Pacific/Fakaofo",
    "lib/python3.6/site-packages/pytz/zoneinfo/Pacific/Fiji",
    "lib/python3.6/site-packages/pytz/zoneinfo/Pacific/Funafuti",
    "lib/python3.6/site-packages/pytz/zoneinfo/Pacific/Galapagos",
    "lib/python3.6/site-packages/pytz/zoneinfo/Pacific/Gambier",
    "lib/python3.6/site-packages/pytz/zoneinfo/Pacific/Guadalcanal",
    "lib/python3.6/site-packages/pytz/zoneinfo/Pacific/Guam",
    "lib/python3.6/site-packages/pytz/zoneinfo/Pacific/Honolulu",
    "lib/python3.6/site-packages/pytz/zoneinfo/Pacific/Johnston",
    "lib/python3.6/site-packages/pytz/zoneinfo/Pacific/Kiritimati",
    "lib/python3.6/site-packages/pytz/zoneinfo/Pacific/Kosrae",
    "lib/python3.6/site-packages/pytz/zoneinfo/Pacific/Kwajalein",
    "lib/python3.6/site-packages/pytz/zoneinfo/Pacific/Majuro",
    "lib/python3.6/site-packages/pytz/zoneinfo/Pacific/Marquesas",
    "lib/python3.6/site-packages/pytz/zoneinfo/Pacific/Midway",
    "lib/python3.6/site-packages/pytz/zoneinfo/Pacific/Nauru",
    "lib/python3.6/site-packages/pytz/zoneinfo/Pacific/Niue",
    "lib/python3.6/site-packages/pytz/zoneinfo/Pacific/Norfolk",
    "lib/python3.6/site-packages/pytz/zoneinfo/Pacific/Noumea",
    "lib/python3.6/site-packages/pytz/zoneinfo/Pacific/Pago_Pago",
    "lib/python3.6/site-packages/pytz/zoneinfo/Pacific/Palau",
    "lib/python3.6/site-packages/pytz/zoneinfo/Pacific/Pitcairn",
    "lib/python3.6/site-packages/pytz/zoneinfo/Pacific/Pohnpei",
    "lib/python3.6/site-packages/pytz/zoneinfo/Pacific/Ponape",
    "lib/python3.6/site-packages/pytz/zoneinfo/Pacific/Port_Moresby",
    "lib/python3.6/site-packages/pytz/zoneinfo/Pacific/Rarotonga",
    "lib/python3.6/site-packages/pytz/zoneinfo/Pacific/Saipan",
    "lib/python3.6/site-packages/pytz/zoneinfo/Pacific/Samoa",
    "lib/python3.6/site-packages/pytz/zoneinfo/Pacific/Tahiti",
    "lib/python3.6/site-packages/pytz/zoneinfo/Pacific/Tarawa",
    "lib/python3.6/site-packages/pytz/zoneinfo/Pacific/Tongatapu",
    "lib/python3.6/site-packages/pytz/zoneinfo/Pacific/Truk",
    "lib/python3.6/site-packages/pytz/zoneinfo/Pacific/Wake",
    "lib/python3.6/site-packages/pytz/zoneinfo/Pacific/Wallis",
    "lib/python3.6/site-packages/pytz/zoneinfo/Pacific/Yap",
    "lib/python3.6/site-packages/pytz/zoneinfo/Poland",
    "lib/python3.6/site-packages/pytz/zoneinfo/Portugal",
    "lib/python3.6/site-packages/pytz/zoneinfo/ROC",
    "lib/python3.6/site-packages/pytz/zoneinfo/ROK",
    "lib/python3.6/site-packages/pytz/zoneinfo/Singapore",
    "lib/python3.6/site-packages/pytz/zoneinfo/Turkey",
    "lib/python3.6/site-packages/pytz/zoneinfo/UCT",
    "lib/python3.6/site-packages/pytz/zoneinfo/US/Alaska",
    "lib/python3.6/site-packages/pytz/zoneinfo/US/Aleutian",
    "lib/python3.6/site-packages/pytz/zoneinfo/US/Arizona",
    "lib/python3.6/site-packages/pytz/zoneinfo/US/Central",
    "lib/python3.6/site-packages/pytz/zoneinfo/US/East-Indiana",
    "lib/python3.6/site-packages/pytz/zoneinfo/US/Eastern",
    "lib/python3.6/site-packages/pytz/zoneinfo/US/Hawaii",
    "lib/python3.6/site-packages/pytz/zoneinfo/US/Indiana-Starke",
    "lib/python3.6/site-packages/pytz/zoneinfo/US/Michigan",
    "lib/python3.6/site-packages/pytz/zoneinfo/US/Mountain",
    "lib/python3.6/site-packages/pytz/zoneinfo/US/Pacific",
    "lib/python3.6/site-packages/pytz/zoneinfo/US/Samoa",
    "lib/python3.6/site-packages/pytz/zoneinfo/UTC",
    "lib/python3.6/site-packages/pytz/zoneinfo/Universal",
    "lib/python3.6/site-packages/pytz/zoneinfo/W-SU",
    "lib/python3.6/site-packages/pytz/zoneinfo/WET",
    "lib/python3.6/site-packages/pytz/zoneinfo/Zulu",
    "lib/python3.6/site-packages/pytz/zoneinfo/iso3166.tab",
    "lib/python3.6/site-packages/pytz/zoneinfo/leapseconds",
    "lib/python3.6/site-packages/pytz/zoneinfo/posixrules",
    "lib/python3.6/site-packages/pytz/zoneinfo/tzdata.zi",
    "lib/python3.6/site-packages/pytz/zoneinfo/zone.tab",
    "lib/python3.6/site-packages/pytz/zoneinfo/zone1970.tab"
  ],
  "fn": "pytz-2018.4-py36_0.tar.bz2",
  "license": "MIT",
  "link": {
    "source": "/anaconda/pkgs/pytz-2018.4-py36_0",
    "type": 1
  },
  "md5": "1eef1a3b6c1ac24701e6060bce031e6b",
  "name": "pytz",
  "noarch": null,
  "platform": "darwin",
  "preferred_env": null,
  "priority": 0,
  "schannel": "defaults",
  "size": 217161,
  "subdir": "osx-64",
  "timestamp": 1523903091193,
  "url": "https://repo.continuum.io/pkgs/main/osx-64/pytz-2018.4-py36_0.tar.bz2",
  "version": "2018.4",
  "with_features_depends": {}
}